{
  "$schema": "http://json-schema.org/draft-07/schema#",
  "$id": "https://aliceplex-schema.joshuaavalon.app/v1/actor.schema.json",
  "title": "Actor",
  "description": "An Actor in Plex.",
  "type": "object",
  "properties": {
    "name": {
      "type": "string"
    },
    "role": {
      "type": "string"
    },
    "photo": {
      "type": ["string", "null"],
      "format": "iri",
      "pattern": "^https?://"
    }
  },
  "additionalProperties": false,
  "required": ["name", "role", "photo"]
}
