{
  "$schema": "http://json-schema.org/draft-07/schema#",
  "$id": "https://aliceplex-schema.joshuaavalon.app/v1/album.schema.json",
  "title": "Album",
  "description": "A music album in Plex.",
  "type": "object",
  "properties": {
    "aired": {
      "type": "string",
      "format": "date"
    },
    "summary": {
      "type": "string"
    },
    "genres": {
      "$ref": "./defs.schema.json#/definitions/uniqueStringArray"
    },
    "collections": {
      "$ref": "./defs.schema.json#/definitions/uniqueStringArray"
    }
  },
  "additionalProperties": false,
  "required": ["aired", "summary", "genres ", "collections"]
}
