{
  "$schema": "http://json-schema.org/draft-07/schema#",
  "$id": "https://aliceplex-schema.joshuaavalon.app/v1/artist.schema.json",
  "title": "Artist",
  "description": "A music artist in Plex.",
  "type": "object",
  "properties": {
    "similar": {
      "$ref": "./defs.schema.json#/definitions/uniqueStringArray"
    },
    "summary": {
      "type": "string"
    },
    "genres": {
      "$ref": "./defs.schema.json#/definitions/uniqueStringArray"
    },
    "collections": {
      "$ref": "./defs.schema.json#/definitions/uniqueStringArray"
    }
  },
  "additionalProperties": false,
  "required": ["similar", "summary", "genres ", "collections"]
}
